module Prey_Predator_MAS

go 1.21

require (
	github.com/gorilla/websocket v1.5.1
	github.com/quartercastle/vector v0.2.0
)

require (
	github.com/chzyer/readline v1.5.1 // indirect
	github.com/google/pprof v0.0.0-20231212022811-ec68065c825e // indirect
	github.com/ianlancetaylor/demangle v0.0.0-20231023195312-e2daf7ba7156 // indirect
	golang.org/x/net v0.19.0 // indirect
	golang.org/x/sys v0.15.0 // indirect
)
